<?xml version="1.0" encoding="UTF-8" standalone="no"?>
<!-- Created with Inkscape (http://www.inkscape.org/) -->

<svg xmlns:dc="http://purl.org/dc/elements/1.1/" xmlns:cc="http://creativecommons.org/ns#" xmlns:rdf="http://www.w3.org/1999/02/22-rdf-syntax-ns#" xmlns:svg="http://www.w3.org/2000/svg" xmlns="http://www.w3.org/2000/svg" xmlns:sodipodi="http://sodipodi.sourceforge.net/DTD/sodipodi-0.dtd" xmlns:inkscape="http://www.inkscape.org/namespaces/inkscape" width="100.73626708984mm" height="73.333160400391mm" viewBox="0 0 307.00576636905 158.02431870791" version="1.1" id="svg8" inkscape:version="0.92.5 (0.92.5+69)" sodipodi:docname="solidground-logo-bare.svg">
  <defs id="defs2" />
  <sodipodi:namedview id="base" pagecolor="#ffffff" bordercolor="#666666" borderopacity="1.0" inkscape:pageopacity="0.0" inkscape:pageshadow="2" inkscape:zoom="1.48" inkscape:cx="59.700415615021" inkscape:cy="83.186608749167" inkscape:document-units="mm" inkscape:current-layer="layer1" showgrid="false" fit-margin-top="0" fit-margin-left="0" fit-margin-right="0" fit-margin-bottom="0" inkscape:window-width="1755" inkscape:window-height="959" inkscape:window-x="2276" inkscape:window-y="334" inkscape:window-maximized="0" />
  <metadata id="metadata5">
    <rdf:RDF>
      <cc:Work rdf:about="">
        <dc:format>image/svg+xml</dc:format>
        <dc:type rdf:resource="http://purl.org/dc/dcmitype/StillImage" />
        <dc:title></dc:title>
      </cc:Work>
    </rdf:RDF>
  </metadata>
  <g inkscape:label="Layer 1" inkscape:groupmode="layer" id="layer1" transform="translate(-30.09769821167,-219.42763705922)">
    <g id="g4607" transform="translate(0,99.987299883453)" inkscape:export-xdpi="161.40585327148" inkscape:export-ydpi="161.40585327148">
      <rect ry="24.430686950684" rx="24.430686950684" y="165.30158996582" x="30.09769821167" height="63.531764984131" width="249.99998474121" id="rect4518" style="fill:#060;fill-opacity:1;fill-rule:evenodd;stroke:none;stroke-width:0.4037927985px;stroke-linecap:butt;stroke-linejoin:miter;stroke-opacity:1" />
      <rect ry="24.430686950684" rx="24.430686950684" y="246.8159942627" x="30.423803329468" height="63.531768798828" width="249.99998474121" id="rect4518-8" style="fill:#3d4144;fill-opacity:1;fill-rule:evenodd;stroke:none;stroke-width:0.4037928283px;stroke-linecap:butt;stroke-linejoin:miter;stroke-opacity:1" />
      <rect ry="24.430686950684" rx="24.430686950684" y="86.856231689453" x="87.103462219238" height="63.531768798828" width="249.99998474121" id="rect4518-84" style="fill:#f90;fill-opacity:1;fill-rule:evenodd;stroke:none;stroke-width:0.4037928283px;stroke-linecap:butt;stroke-linejoin:miter;stroke-opacity:1" />
    </g>
  </g>
</svg>
